…
8,255 flights are missing `dep_time`. Similarly, 8,255 flights are
missing `dep_delay`, 8,713 are missing `arr_time`, 9,430 are missing
`arr_delay`, and 9,430 are missing `air_time`. There could be many
explanations for this, including flights that never took off, never
landed, or were rerouted. Alternatively, it is very possible that
mistakes were made in record keeping, resulting in imperfect data.

# Question 2.

``` r
flights%>%
  mutate(dep_time = ((dep_time - dep_time%%100)*.6) + dep_time%%100, sched_dep_time = ((sched_dep_time - sched_dep_time%%100)*.6) + sched_dep_time%%100)
```

    ## # A tibble: 336,776 x 19
    ##     year month   day dep_time sched_dep_time dep_delay arr_time sched_arr_time
    ##    <int> <int> <int>    <dbl>          <dbl>     <dbl>    <int>          <int>
    ##  1  2013     1     1      317            315         2      830            819
    ##  2  2013     1     1      333            329         4      850            830
    ##  3  2013     1     1      342            340         2      923            850
    ##  4  2013     1     1      344            345        -1     1004           1022
    ##  5  2013     1     1      354            360        -6      812            837
    ##  6  2013     1     1      354            358        -4      740            728
    ##  7  2013     1     1      355            360        -5      913            854
    ##  8  2013     1     1      357            360        -3      709            723
    ##  9  2013     1     1      357            360        -3      838            846
    ## 10  2013     1     1      358            360        -2      753            745
    ## # ... with 336,766 more rows, and 11 more variables: arr_delay <dbl>,
    ## #   carrier <chr>, flight <int>, tailnum <chr>, origin <chr>, dest <chr>,
    ## #   air_time <dbl>, distance <dbl>, hour <dbl>, minute <dbl>, time_hour <dttm>
…
